Reproducible report: Diversity of Fusarium and related mycotoxins in Brazilian rice
…
Load and prepare data

The data were stored in a csv file and were loaded using the read_csv function.

Sys.setlocale("LC_ALL", "pt_BR.UTF-8")

## [1] "pt_BR.UTF-8/pt_BR.UTF-8/pt_BR.UTF-8/C/pt_BR.UTF-8/en_US.UTF-8"

# Use UTF to portuguese to preserve the names of the locations. 

dat_fus <- read_csv("data/data_fus.csv")

dat_fus

## # A tibble: 279 x 34
##    sample sample_code  year state field city  lat     lon cultivar crop_system
##    <chr>  <chr>       <dbl> <chr> <dbl> <chr> <chr> <dbl> <chr>    <chr>      
##  1 RF01   15GO001      2015 GO (     1 Braz -16. -49.4 BRS Esm High lands 
##  2 RF02   15GO002      2015 GO (     2 Braz -16. -49.4 BRS Ser High lands 
##  3 RF03   15GO003      2015 GO (     3 Braz -16. -49.4 BRS Pri High lands 
##  4 RF05   15GO005      2015 GO (     5 Braz -16. -49.4 BRS Esm High lands 
##  5 RF06   15GO006      2015 GO (     6 Braz -16. -49.4 BRS Ser High lands 
##  6 RF07   15GO008      2015 GO (     8 Braz -16. -49.4 AN Camb High lands 
##  7 RF08   15GO010      2015 GO (    10 Braz -16. -49.4 BRS MG  Irrigated  
##  8 RF10   15GO018      2015 GO (    18 Braz -16. -49.4 BRS Taim Irrigated  
##  9 RF11   15GO019      2015 GO (    19 Braz -16. -49.4 SCS BRS Irrigated  
## 10 RF12   15GO020      2015 GO (    20 Braz -16. -49.4 BRS Sin Irrigated  
## #  with 269 more rows, and 24 more variables: previous_crop <chr>,
## #   substrate <chr>, FCSC <dbl>, FFSC <dbl>, FGSC <dbl>, FIESC <dbl>,
## #   n_isolates <dbl>, Complex <chr>, n_complex <dbl>, MON <dbl>, DON <dbl>,
## #   AcDON <dbl>, DON_total <dbl>, `HT-2` <dbl>, `T-2` <dbl>, NEO <dbl>,
## #   ZEA <dbl>, `ENN B` <dbl>, `ENN B1` <dbl>, `ENN A1` <dbl>, `ENN A` <dbl>,
## #   BEA <dbl>, `FUM B1` <dbl>, `FUM B2` <dbl>
…
